…
# salvando a tabela num csv para uso posterior

write_csv(scare_table, 'jumpscaredb.csv')


scare_table
```

```
## # A tibble: 627 x 6
##    movie_name      director          year jump_count is_netflix imdb_rating
##    <chr>           <chr>            <int>      <int> <chr>            <dbl>
##  1 [Rec]           Jaume Balagueró~  2007         11 No                 7.5
##  2 10 Cloverfield~ Dan Trachtenberg  2016          8 No                 7.3
##  3 1408            Mikael Håfström   2007          8 No                 6.8
##  4 1917            Sam Mendes        2019         10 No                 8.5
##  5 1922            Zak Hilditch      2017          2 Yes                6.5
##  6 1BR             David Marmor      2019          3 No                 5.8
##  7 28 Days Later   Danny Boyle       2002         10 No                 7.6
##  8 28 Weeks Later  Juan Carlos Fre~  2007         17 No                 7  
##  9 30 Days of Nig~ David Slade       2007          9 No                 6.6
## 10 31              Rob Zombie        2016          8 No                 5.1
## # ... with 617 more rows
```
…
